<svg id="Rooftop-Terrace-Icon" xmlns="http://www.w3.org/2000/svg" viewBox="0 0 48 49.482" fill="currentColor">
  <path id="Path_124" data-name="Path 124" class="cls-1" d="M24,42.1C10.9,42.1.1,33.1,0,22H2c.1,10,10,18.1,22,18.1S45.9,32,46,22h2C47.9,33.1,37.1,42.1,24,42.1Z"/>
  <path id="Path_125" data-name="Path 125" class="cls-1" d="M24,31.1c-15.6,0-24-4.8-24-9.2s8.4-9.2,24-9.2,24,4.8,24,9.2S39.6,31.1,24,31.1Zm0-16.5c-13,0-22,3.8-22,7.2S11,29,24,29s22-3.8,22-7.2S37,14.6,24,14.6Z"/>
  <g id="Group_164" data-name="Group 164" transform="translate(0 2)">
    <rect id="Rectangle_53" data-name="Rectangle 53" class="cls-1" width="12.9" height="2" transform="matrix(0.487, -0.873, 0.873, 0.487, 5.45, 46.507)"/>
    <rect id="Rectangle_54" data-name="Rectangle 54" class="cls-1" width="2" height="12.9" transform="translate(34.497 36.199) rotate(-29.195)"/>
  </g>
  <rect id="Rectangle_55" data-name="Rectangle 55" class="cls-1" width="2" height="2.6" transform="translate(23 41.1)"/>
  <rect id="Rectangle_56" data-name="Rectangle 56" class="cls-1" width="2.6" height="2" transform="translate(24.65 15.317) rotate(-9.242)"/>
  <rect id="Rectangle_57" data-name="Rectangle 57" class="cls-1" width="9.9" height="2" transform="translate(11.507 17.511) rotate(-9.242)"/>
  <rect id="Rectangle_58" data-name="Rectangle 58" class="cls-1" width="1.7" height="2" transform="translate(7.055 18.247) rotate(-9.242)"/>
  <rect id="Rectangle_59" data-name="Rectangle 59" class="cls-1" width="5.4" height="2" transform="translate(29.467 17.745) rotate(-9.242)"/>
  <rect id="Rectangle_60" data-name="Rectangle 60" class="cls-1" width="8.4" height="2" transform="translate(15.687 19.99) rotate(-9.242)"/>
  <rect id="Rectangle_61" data-name="Rectangle 61" class="cls-1" width="5.1" height="2" transform="translate(5.666 21.623) rotate(-9.242)"/>
  <rect id="Rectangle_62" data-name="Rectangle 62" class="cls-1" width="6.4" height="2" transform="translate(9.387 24.322) rotate(-9.242)"/>
  <rect id="Rectangle_63" data-name="Rectangle 63" class="cls-1" width="25.7" height="2" transform="translate(15.5 26.475) rotate(-9.242)"/>
  <g id="Group_165" data-name="Group 165">
    <path id="Path_126" data-name="Path 126" class="cls-1" d="M22.7,26.2a22.287,22.287,0,0,1-14-4.6,2.5,2.5,0,0,1-.8-1.8A2.41,2.41,0,0,1,8.6,18a2.632,2.632,0,0,1,3.6-.1c.2.2,5.4,4.5,14.1,3a2.68,2.68,0,0,1,3,2,2.319,2.319,0,0,1-.4,1.8,2.454,2.454,0,0,1-1.7,1.1A22.823,22.823,0,0,1,22.7,26.2ZM10.5,19.3c-.2,0-.3.1-.5.2a.367.367,0,0,0-.1.3c0,.1,0,.2.2.3.2.2,4.8,4.1,12.7,4.1a19,19,0,0,0,4.1-.4.52.52,0,0,0,.4-.2c0-.1.1-.2.1-.3a.569.569,0,0,0-.7-.4c-9.6,1.6-15.5-3.3-15.7-3.5A1.087,1.087,0,0,0,10.5,19.3Z"/>
  </g>
  <g id="Group_166" data-name="Group 166">
    <path id="Path_127" data-name="Path 127" class="cls-1" d="M35.4,23.7a22.287,22.287,0,0,1-14-4.6,2.5,2.5,0,0,1-.8-1.8,2.41,2.41,0,0,1,.7-1.8,2.632,2.632,0,0,1,3.6-.1c.2.2,5.4,4.5,14.1,3a2.68,2.68,0,0,1,3,2,2.319,2.319,0,0,1-.4,1.8,2.454,2.454,0,0,1-1.7,1.1A22.823,22.823,0,0,1,35.4,23.7Zm-12.2-7c-.2,0-.3.1-.5.2a.367.367,0,0,0-.1.3c0,.1,0,.2.2.3.2.2,4.8,4.1,12.7,4.1a18.4,18.4,0,0,0,4.1-.4A.52.52,0,0,0,40,21c0-.1.1-.2.1-.3a.569.569,0,0,0-.7-.4c-9.6,1.6-15.5-3.3-15.7-3.5A4.331,4.331,0,0,1,23.2,16.7Z"/>
  </g>
  <path id="Path_128" data-name="Path 128" class="cls-1" d="M23.3,11.5c-1.9-1.7-2.7-4.3-1.8-5.6a9.016,9.016,0,0,1,.9-1c.3-.4.7-.7.8-1a.951.951,0,0,0,0-.9A2,2,0,0,0,22,2l.6-2a4.027,4.027,0,0,1,2.5,2.1,2.965,2.965,0,0,1,0,2.6,6.088,6.088,0,0,1-1.2,1.5,5.008,5.008,0,0,0-.7.8,3.554,3.554,0,0,0,1.5,3Z"/>
  <path id="Path_129" data-name="Path 129" class="cls-1" d="M28,9a2.852,2.852,0,0,1-.9-1.7,2.32,2.32,0,0,1,.2-2.1,2.181,2.181,0,0,1,.4-.5l.1-.1a.663.663,0,0,0,.2-.7L29.8,3a2.591,2.591,0,0,1-.5,3l-.2.2c-.1,0-.1.1-.2.1,0,.1.1.4.1.5a2.389,2.389,0,0,0,.3.7Z"/>
</svg>
